Spatial data and the tidyverse
…
```r
world_cont = world %>% 
        group_by(continent) %>% 
        summarize(pop_sum = sum(pop, na.rm = TRUE))
```

```
## Simple feature collection with 8 features and 2 fields
## geometry type:  GEOMETRY
## dimension:      XY
## bbox:           xmin: -180 ymin: -90 xmax: 180 ymax: 83.64513
## epsg (SRID):    4326
## proj4string:    +proj=longlat +datum=WGS84 +no_defs
## # A tibble: 8 x 3
##   continent    pop_sum              geom
##      <fctr>      <dbl>  <simple_feature>
## 1    Africa 1147005839 <MULTIPOLYGON...>
## # ... with 7 more rows
```
…
